통계와 분석 - 3 R 기본
…
diamands : 다이아몬드 50,000여 개의 가격

msleep : 포유류 83 종류의 잠 시간

만일 여기서 R을 새로 시작했다면, 먼저 library를 이용해서 활성화 시켜야겠죠. 설치 안 했으면 먼저 설치를 해야 합니다.

# install.packages("ggplot2")
library(ggplot2)

분석 전에 먼저 msleep 데이터셋을 살펴봅니다.

msleep

# A tibble: 83 × 11
   name   genus vore  order conservation sleep_total sleep_rem sleep_cycle awake
   <chr>  <chr> <chr> <chr> <chr>              <dbl>     <dbl>       <dbl> <dbl>
 1 Cheet… Acin… carni Carn… lc                  12.1      NA        NA      11.9
 2 Owl m… Aotus omni  Prim… <NA>                17         1.8      NA       7  
 3 Mount… Aplo… herbi Rode… nt                  14.4       2.4      NA       9.6
 4 Great… Blar… omni  Sori… lc                  14.9       2.3       0.133   9.1
 5 Cow    Bos   herbi Arti… domesticated         4         0.7       0.667  20  
 6 Three… Brad… herbi Pilo… <NA>                14.4       2.2       0.767   9.6
 7 North… Call… carni Carn… vu                   8.7       1.4       0.383  15.3
 8 Vespe… Calo… <NA>  Rode… <NA>                 7        NA        NA      17  
 9 Dog    Canis carni Carn… domesticated        10.1       2.9       0.333  13.9
10 Roe d… Capr… herbi Arti… lc                   3        NA        NA      21  
# ℹ 73 more rows
# ℹ 2 more variables: brainwt <dbl>, bodywt <dbl>
…
